name,id,flux/second,f/s (base rate),f/s (base cap),flux/use,f/u (base rate),f/u (base cap),cr/u,max uses,regen,charge up,active,down,cooldown,toggle,noDissipation,noHardDissipation,hardFlux,noFiring,noTurning,noStrafing,noAccel,noShield,noVent,isPhaseCloak,tags,icon
Schism Drive,tem_schismdrive,,,,,,0.25,,,,0.3,1,0.3,10,,TRUE,,,TRUE,TRUE,TRUE,TRUE,,TRUE,,,graphics/icons/hullsys/phase_cloak.png
Aegis Shield,tem_aegisshield,,0.6,,,,,,2,0.1,0.25,3,0.25,3.5,,,TRUE,TRUE,TRUE,,,,,,,,graphics/icons/hullsys/fortress_shield.png
Holy Charge,tem_holycharge,1,,,,,,,,,2,7,1,20,,,TRUE,,TRUE,,TRUE,,,TRUE,,,graphics/icons/hullsys/burn_drive.png
Interdictor Drones,tem_interdictor_drones,,,,,,,,15,0.1,0,,0,0,,,,,,,,,,,,,graphics/icons/hullsys/drone_pd_high.png
Riastrad,tem_riastrad,,-0.05,,,,,,,,0.5,5,0.5,10,,,,,,,,,,,,,graphics/icons/hullsys/high_energy_focus.png
Divine Reach,tem_divinereach,,0.7,,,,,,,,0.25,0,1,0,TRUE,,,TRUE,,,,,,,,,graphics/icons/hullsys/high_energy_focus.png
Priwen Burst,tem_priwenburstshield,,,,,,,,,,0.1,,0.1,1.2,,,,TRUE,,,,,TRUE,,TRUE,,graphics/icons/hullsys/emp_emitter.png
Almace Burst,tem_almaceburst,,,,,,,,,,0.3,,2,7,,,,TRUE,TRUE,,,,TRUE,,TRUE,,graphics/icons/hullsys/emp_emitter.png
,,,,,,,,,,,,,,,,,,,,,,,,,,,
Heavy Schism Drive,tem_heavyschismdrive,,1,,,,0.2,,,,0.35,2,0.7,20,,TRUE,,,TRUE,TRUE,TRUE,TRUE,,TRUE,,restricted,graphics/icons/hullsys/phase_cloak.png
Warp Spasm,tem_warpspasm,,-0.1,,,,,,,,0.75,7.5,0.75,15,,,,,,,,,,,,restricted,graphics/icons/hullsys/high_energy_focus.png
