{
    "designTypeColors":{
        "Knights Templar":[0,255,255,255],
    },

    "plugins":{
        "TEM_ExcaliburDriveExplosion":"data.scripts.everyframe.TEM_ExcaliburDriveExplosion",
        "TEM_PriwenBurstPlugin":"data.scripts.everyframe.TEM_PriwenBurstPlugin",
        "TEM_AlmaceBurstPlugin":"data.scripts.everyframe.TEM_AlmaceBurstPlugin",
        "TEM_BlockedHullmodDisplayScript":"data.scripts.everyframe.TEM_BlockedHullmodDisplayScript",
    },

    "graphics":{
        "misc":{
            "tem_antioch_asteroids":"graphics/templars/planets/tem_antioch_asteroids.png",
        },
        "latticeShield":{
            "tem_teuton":"graphics/templars/lattice/tem_teuton_lattice.png",
            "tem_jesuit":"graphics/templars/lattice/tem_jesuit_lattice.png",
            "tem_martyr":"graphics/templars/lattice/tem_martyr_lattice.png",
            "tem_crusader":"graphics/templars/lattice/tem_crusader_lattice.png",
            "tem_paladin":"graphics/templars/lattice/tem_paladin_lattice.png",
            "tem_chevalier":"graphics/templars/lattice/tem_chevalier_lattice.png",
            "tem_archbishop":"graphics/templars/lattice/tem_archbishop_lattice.png",
            "tem_boss_paladin":"graphics/templars/lattice/tem_boss_paladin_lattice.png",
            "tem_boss_archbishop":"graphics/templars/lattice/tem_boss_archbishop_lattice.png",
        },
        "flareShader":{
            "tem_teuton":"graphics/templars/shader/tem_teuton_shader.png",
            "tem_jesuit":"graphics/templars/shader/tem_jesuit_shader.png",
            "tem_martyr1":"graphics/templars/shader/tem_martyr_shader1.png",
            "tem_martyr2":"graphics/templars/shader/tem_martyr_shader2.png",
            "tem_crusader1":"graphics/templars/shader/tem_crusader_shader1.png",
            "tem_crusader2":"graphics/templars/shader/tem_crusader_shader2.png",
            "tem_paladin1":"graphics/templars/shader/tem_paladin_shader1.png",
            "tem_paladin2":"graphics/templars/shader/tem_paladin_shader2.png",
            "tem_chevalier1":"graphics/templars/shader/tem_chevalier_shader1.png",
            "tem_chevalier2":"graphics/templars/shader/tem_chevalier_shader2.png",
            "tem_archbishop":"graphics/templars/shader/tem_archbishop_shader.png",
            "tem_boss_paladin1":"graphics/templars/shader/tem_boss_paladin_shader1.png",
            "tem_boss_paladin2":"graphics/templars/shader/tem_boss_paladin_shader2.png",
            "tem_boss_archbishop1":"graphics/templars/shader/tem_boss_archbishop_shader1.png",
            "tem_boss_archbishop2":"graphics/templars/shader/tem_boss_archbishop_shader2.png",
            "tem_rhon_hardpoint":"graphics/templars/weapons/tem_rhon_hardpoint_glow.png",
            "tem_rhon_turret":"graphics/templars/weapons/tem_rhon_turret_glow.png",
            "tem_longinus_hardpoint":"graphics/templars/weapons/tem_longinus_hardpoint_glow.png",
            "tem_longinus_turret":"graphics/templars/weapons/tem_longinus_turret_glow.png",
            "tem_lancelot":"graphics/templars/weapons/tem_lancelot_hardpoint_glow.png",
            "tem_joyeuse":"graphics/templars/shader/tem_joyeuse_shader.png",
            "tem_clarent":"graphics/templars/shader/tem_joyeuse_shader.png",
            "tem_roland":"graphics/templars/shader/tem_roland_shader.png",
            "tem_crucifix":"graphics/templars/shader/tem_crucifix_shader.png",
            "tem_trucidare":"graphics/templars/shader/tem_trucidare_shader.png",
        },
        "terrain":{
            "tem_nebula_antioch1":"graphics/templars/terrain/tem_nebula_antioch1.png",
            "tem_nebula_antioch1_map":"graphics/templars/terrain/tem_nebula_antioch1_map.png",
            "tem_nebula_antioch2":"graphics/templars/terrain/tem_nebula_antioch2.png",
            "tem_nebula_antioch2_map":"graphics/templars/terrain/tem_nebula_antioch2_map.png",
            "tem_nebula_antioch3":"graphics/templars/terrain/tem_nebula_antioch3.png",
            "tem_nebula_antioch3_map":"graphics/templars/terrain/tem_nebula_antioch3_map.png",
        },
        "ui":{
            "tem_priwen_burst":"graphics/icons/tactical/overloaded2.png",
        },
		"weapons":{
		    "tem_jugerglow":"graphics/templars/fx/tem_jugerglow.png",
		    "tem_jugerblast":"graphics/templars/fx/tem_jugerblast.png",
		    "tem_secaceblast":"graphics/templars/fx/tem_secaceblast.png",
		    "tem_galatineblast":"graphics/templars/fx/tem_galatineblast.png",
		    "tem_arondightflare":"graphics/templars/fx/tem_arondightflare.png",
		    "tem_crucifixblast":"graphics/templars/fx/tem_crucifixblast.png",
		},
        "tem_trails":{
            "tem_cleantrail":"graphics/templars/fx/tem_cleantrail.png",
            "tem_dirtytrail":"graphics/templars/fx/tem_dirtytrail.png",
            "tem_fuzzytrail":"graphics/templars/fx/tem_fuzzytrail.png",
            "tem_smoothtrail":"graphics/templars/fx/tem_smoothtrail.png",
            "tem_zappytrail":"graphics/templars/fx/tem_zappytrail.png",
            "tem_joytrail":"graphics/templars/fx/tem_joytrail.png",
        },
    },
}