{
    "combatSmallForSmallFleet":{
        "tem_jesuit_sal":10,
        "tem_jesuit_est":10,
        "tem_jesuit_def":10,
        "tem_jesuit_ati":10,
        "tem_martyr_est":10,
        "tem_martyr_sal":10,
        "tem_martyr_def":10,
    },
    "combatSmall":{
        "tem_jesuit_sal":10,
        "tem_jesuit_est":10,
        "tem_jesuit_def":10,
        "tem_jesuit_ati":10,
        "tem_martyr_est":10,
        "tem_martyr_sal":10,
        "tem_martyr_def":10,
    },
    "combatMedium":{
        "tem_crusader_def":10,
        "tem_crusader_agi":10,
        "tem_crusader_est":10,
        "tem_crusader_ati":10,
        "tem_crusader_sal":10,
    },
    "combatLarge":{
        "tem_paladin_agi":12,
        "tem_paladin_ati":12,
        "tem_paladin_est":12,
        "tem_paladin_mit":12,
        "tem_paladin_sal":12,
        "tem_chevalier_agi":10,
        "tem_chevalier_ati":10,
        "tem_chevalier_est":10,
        "tem_chevalier_sal":10,
    },
    "carrierLarge":{
        "tem_archbishop_ati":10,
        "tem_archbishop_def":10,
        "tem_archbishop_est":10,
        "tem_archbishop_man":10,
        "tem_archbishop_mit":10,
        "tem_archbishop_sal":10,
    },
}
